TP2/simulation/qsim/Contador.msim.vcd
$comment
	File created using the following command:
		vcd file Contador.msim.vcd -direction
$end
$date
	Mon Jun 23 12:15:30 2025
$end
$version
	ModelSim Version 10.1d
$end
$timescale
	1ps
$end
$scope module Contador_vlg_vec_tst $end
$var reg 1 ! clk $end
$var wire 1 " Q0 $end
$var wire 1 # Q1 $end
$var wire 1 $ Q2 $end
$var wire 1 % Q3 $end
$var wire 1 & Q4 $end
$var wire 1 ' Q5 $end
$var wire 1 ( sampler $end
$scope module i1 $end
$var wire 1 ) gnd $end
$var wire 1 * vcc $end
$var wire 1 + unknown $end
$var tri1 1 , devclrn $end
$var tri1 1 - devpor $end
$var tri1 1 . devoe $end
$var wire 1 / Q0~output_o $end
$var wire 1 0 Q1~output_o $end
$var wire 1 1 Q5~output_o $end
$var wire 1 2 Q2~output_o $end
$var wire 1 3 Q4~output_o $end
$var wire 1 4 Q3~output_o $end
$var wire 1 5 clk~input_o $end
$var wire 1 6 clk~inputclkctrl_outclk $end
$var wire 1 7 FF0~0_combout $end
$var wire 1 8 FF1~0_combout $end
$var wire 1 9 FF1~q $end
$var wire 1 : FF2~0_combout $end
$var wire 1 ; FF2~q $end
$var wire 1 < FF3~0_combout $end
$var wire 1 = FF3~q $end
$var wire 1 > FF4~0_combout $end
$var wire 1 ? FF4~1_combout $end
$var wire 1 @ FF4~q $end
$var wire 1 A inst8~0_combout $end
$var wire 1 B FF5~0_combout $end
$var wire 1 C FF5~q $end
$var wire 1 D inst1~combout $end
$var wire 1 E FF0~q $end
$upscope $end
$upscope $end
$enddefinitions $end
#0
$dumpvars
0!
0"
0#
0$
0%
0&
0'
x(
0)
1*
x+
1,
1-
1.
0/
00
01
02
03
04
05
06
17
08
09
0:
0;
0<
0=
1>
0?
0@
0A
0B
0C
0D
0E
$end
#5000
1!
15
16
0(
1E
18
07
1/
1"
#10000
0!
05
06
1(
#15000
1!
15
16
0(
0E
19
17
0/
10
0"
1#
#20000
0!
05
06
1(
#25000
1!
15
16
0(
1E
1:
08
07
1/
1"
#30000
0!
05
06
1(
#35000
1!
15
16
0(
0E
1;
09
17
0/
12
00
0"
1$
0#
#40000
0!
05
06
1(
#45000
1!
15
16
0(
1E
18
07
1/
1"
#50000
0!
05
06
1(
#55000
1!
15
16
0(
0E
19
17
0/
10
0"
1#
#60000
0!
05
06
1(
#65000
1!
15
16
0(
1E
1<
0:
08
07
1/
1"
#70000
0!
05
06
1(
#75000
1!
15
16
0(
0E
1=
0;
09
17
0/
14
02
00
0"
1%
0$
0#
#80000
0!
05
06
1(
#85000
1!
15
16
0(
1E
18
07
1/
1"
#90000
0!
05
06
1(
#95000
1!
15
16
0(
0E
19
17
0/
10
0"
1#
#100000
0!
05
06
1(
#105000
1!
15
16
0(
1E
1:
08
07
1/
1"
#110000
0!
05
06
1(
#115000
1!
15
16
0(
0E
1;
09
17
0>
0/
12
00
0"
1$
0#
#120000
0!
05
06
1(
#125000
1!
15
16
0(
1E
18
07
1/
1"
#130000
0!
05
06
1(
#135000
1!
15
16
0(
0E
19
17
0/
10
0"
1#
#140000
0!
05
06
1(
#145000
1!
15
16
0(
1E
1A
1?
0<
0:
08
07
1/
1"
#150000
0!
05
06
1(
#155000
1!
15
16
0(
0E
1@
0=
0;
09
0A
17
1B
1>
0/
13
04
02
00
0"
1&
0%
0$
0#
0B
#160000
0!
05
06
1(
#165000
1!
15
16
0(
1E
18
07
1/
1"
#170000
0!
05
06
1(
#175000
1!
15
16
0(
0E
19
17
0/
10
0"
1#
#180000
0!
05
06
1(
#185000
1!
15
16
0(
1E
1:
08
07
1/
1"
#190000
0!
05
06
1(
#195000
1!
15
16
0(
0E
1;
09
17
0/
12
00
0"
1$
0#
#200000
0!
05
06
1(
#205000
1!
15
16
0(
1E
18
07
1/
1"
#210000
0!
05
06
1(
#215000
1!
15
16
0(
0E
19
17
0/
10
0"
1#
#220000
0!
05
06
1(
#225000
1!
15
16
0(
1E
1<
0:
08
07
1/
1"
#230000
0!
05
06
1(
#235000
1!
15
16
0(
0E
1=
0;
09
17
0/
14
02
00
0"
1%
0$
0#
#240000
0!
05
06
1(
#245000
1!
15
16
0(
1E
18
07
1/
1"
#250000
0!
05
06
1(
#255000
1!
15
16
0(
0E
19
17
0/
10
0"
1#
#260000
0!
05
06
1(
#265000
1!
15
16
0(
1E
1:
08
07
1/
1"
#270000
0!
05
06
1(
#275000
1!
15
16
0(
0E
1;
09
17
0>
0/
12
00
0"
1$
0#
#280000
0!
05
06
1(
#285000
1!
15
16
0(
1E
18
07
1/
1"
#290000
0!
05
06
1(
#295000
1!
15
16
0(
0E
19
17
0/
10
0"
1#
#300000
0!
05
06
1(
#305000
1!
15
16
0(
1E
1A
0?
0<
0:
08
07
1/
1"
1B
#310000
0!
05
06
1(
#315000
1!
15
16
0(
0E
1C
0@
0=
0;
09
0A
17
1>
0/
11
03
04
02
00
0"
1'
0&
0%
0$
0#
#320000
0!
05
06
1(
#325000
1!
15
16
0(
1E
18
07
1/
1"
#330000
0!
05
06
1(
#335000
1!
15
16
0(
0E
19
17
0/
10
0"
1#
#340000
0!
05
06
1(
#345000
1!
15
16
0(
1E
1D
1:
08
07
1/
1"
09
0C
0E
0D
0:
0B
17
00
01
0/
0#
0'
0"
#350000
0!
05
06
1(
#355000
1!
15
16
0(
1E
18
07
1/
1"
#360000
0!
05
06
1(
#365000
1!
15
16
0(
0E
19
17
0/
10
0"
1#
#370000
0!
05
06
1(
#375000
1!
15
16
0(
1E
1:
08
07
1/
1"
#380000
0!
05
06
1(
#385000
1!
15
16
0(
0E
1;
09
17
0/
12
00
0"
1$
0#
#390000
0!
05
06
1(
#395000
1!
15
16
0(
1E
18
07
1/
1"
#400000
0!
05
06
1(
#405000
1!
15
16
0(
0E
19
17
0/
10
0"
1#
#410000
0!
05
06
1(
#415000
1!
15
16
0(
1E
1<
0:
08
07
1/
1"
#420000
0!
05
06
1(
#425000
1!
15
16
0(
0E
1=
0;
09
17
0/
14
02
00
0"
1%
0$
0#
#430000
0!
05
06
1(
#435000
1!
15
16
0(
1E
18
07
1/
1"
#440000
0!
05
06
1(
#445000
1!
15
16
0(
0E
19
17
0/
10
0"
1#
#450000
0!
05
06
1(
#455000
1!
15
16
0(
1E
1:
08
07
1/
1"
#460000
0!
05
06
1(
#465000
1!
15
16
0(
0E
1;
09
17
0>
0/
12
00
0"
1$
0#
#470000
0!
05
06
1(
#475000
1!
15
16
0(
1E
18
07
1/
1"
#480000
0!
05
06
1(
#485000
1!
15
16
0(
0E
19
17
0/
10
0"
1#
#490000
0!
05
06
1(
#495000
1!
15
16
0(
1E
1A
1?
0<
0:
08
07
1/
1"
#500000
0!
05
06
1(
#505000
1!
15
16
0(
0E
1@
0=
0;
09
0A
17
1B
1>
0/
13
04
02
00
0"
1&
0%
0$
0#
0B
#510000
0!
05
06
1(
#515000
1!
15
16
0(
1E
18
07
1/
1"
#520000
0!
05
06
1(
#525000
1!
15
16
0(
0E
19
17
0/
10
0"
1#
#530000
0!
05
06
1(
#535000
1!
15
16
0(
1E
1:
08
07
1/
1"
#540000
0!
05
06
1(
#545000
1!
15
16
0(
0E
1;
09
17
0/
12
00
0"
1$
0#
#550000
0!
05
06
1(
#555000
1!
15
16
0(
1E
18
07
1/
1"
#560000
0!
05
06
1(
#565000
1!
15
16
0(
0E
19
17
0/
10
0"
1#
#570000
0!
05
06
1(
#575000
1!
15
16
0(
1E
1<
0:
08
07
1/
1"
#580000
0!
05
06
1(
#585000
1!
15
16
0(
0E
1=
0;
09
17
0/
14
02
00
0"
1%
0$
0#
#590000
0!
05
06
1(
#595000
1!
15
16
0(
1E
18
07
1/
1"
#600000
0!
05
06
1(
#605000
1!
15
16
0(
0E
19
17
0/
10
0"
1#
#610000
0!
05
06
1(
#615000
1!
15
16
0(
1E
1:
08
07
1/
1"
#620000
0!
05
06
1(
#625000
1!
15
16
0(
0E
1;
09
17
0>
0/
12
00
0"
1$
0#
#630000
0!
05
06
1(
#635000
1!
15
16
0(
1E
18
07
1/
1"
#640000
0!
05
06
1(
#645000
1!
15
16
0(
0E
19
17
0/
10
0"
1#
#650000
0!
05
06
1(
#655000
1!
15
16
0(
1E
1A
0?
0<
0:
08
07
1/
1"
1B
#660000
0!
05
06
1(
#665000
1!
15
16
0(
0E
1C
0@
0=
0;
09
0A
17
1>
0/
11
03
04
02
00
0"
1'
0&
0%
0$
0#
#670000
0!
05
06
1(
#675000
1!
15
16
0(
1E
18
07
1/
1"
#680000
0!
05
06
1(
#685000
1!
15
16
0(
0E
19
17
0/
10
0"
1#
#690000
0!
05
06
1(
#695000
1!
15
16
0(
1E
1D
1:
08
07
1/
1"
09
0C
0E
0D
0:
0B
17
00
01
0/
0#
0'
0"
#700000
0!
05
06
1(
#705000
1!
15
16
0(
1E
18
07
1/
1"
#710000
0!
05
06
1(
#715000
1!
15
16
0(
0E
19
17
0/
10
0"
1#
#720000
0!
05
06
1(
#725000
1!
15
16
0(
1E
1:
08
07
1/
1"
#730000
0!
05
06
1(
#735000
1!
15
16
0(
0E
1;
09
17
0/
12
00
0"
1$
0#
#740000
0!
05
06
1(
#745000
1!
15
16
0(
1E
18
07
1/
1"
#750000
0!
05
06
1(
#755000
1!
15
16
0(
0E
19
17
0/
10
0"
1#
#760000
0!
05
06
1(
#765000
1!
15
16
0(
1E
1<
0:
08
07
1/
1"
#770000
0!
05
06
1(
#775000
1!
15
16
0(
0E
1=
0;
09
17
0/
14
02
00
0"
1%
0$
0#
#780000
0!
05
06
1(
#785000
1!
15
16
0(
1E
18
07
1/
1"
#790000
0!
05
06
1(
#795000
1!
15
16
0(
0E
19
17
0/
10
0"
1#
#800000
0!
05
06
1(
#805000
1!
15
16
0(
1E
1:
08
07
1/
1"
#810000
0!
05
06
1(
#815000
1!
15
16
0(
0E
1;
09
17
0>
0/
12
00
0"
1$
0#
#820000
0!
05
06
1(
#825000
1!
15
16
0(
1E
18
07
1/
1"
#830000
0!
05
06
1(
#835000
1!
15
16
0(
0E
19
17
0/
10
0"
1#
#840000
0!
05
06
1(
#845000
1!
15
16
0(
1E
1A
1?
0<
0:
08
07
1/
1"
#850000
0!
05
06
1(
#855000
1!
15
16
0(
0E
1@
0=
0;
09
0A
17
1B
1>
0/
13
04
02
00
0"
1&
0%
0$
0#
0B
#860000
0!
05
06
1(
#865000
1!
15
16
0(
1E
18
07
1/
1"
#870000
0!
05
06
1(
#875000
1!
15
16
0(
0E
19
17
0/
10
0"
1#
#880000
0!
05
06
1(
#885000
1!
15
16
0(
1E
1:
08
07
1/
1"
#890000
0!
05
06
1(
#895000
1!
15
16
0(
0E
1;
09
17
0/
12
00
0"
1$
0#
#900000
0!
05
06
1(
#905000
1!
15
16
0(
1E
18
07
1/
1"
#910000
0!
05
06
1(
#915000
1!
15
16
0(
0E
19
17
0/
10
0"
1#
#920000
0!
05
06
1(
#925000
1!
15
16
0(
1E
1<
0:
08
07
1/
1"
#930000
0!
05
06
1(
#935000
1!
15
16
0(
0E
1=
0;
09
17
0/
14
02
00
0"
1%
0$
0#
#940000
0!
05
06
1(
#945000
1!
15
16
0(
1E
18
07
1/
1"
#950000
0!
05
06
1(
#955000
1!
15
16
0(
0E
19
17
0/
10
0"
1#
#960000
0!
05
06
1(
#965000
1!
15
16
0(
1E
1:
08
07
1/
1"
#970000
0!
05
06
1(
#975000
1!
15
16
0(
0E
1;
09
17
0>
0/
12
00
0"
1$
0#
#980000
0!
05
06
1(
#985000
1!
15
16
0(
1E
18
07
1/
1"
#990000
0!
05
06
1(
#995000
1!
15
16
0(
0E
19
17
0/
10
0"
1#
