TP2/simulation/qsim/MaquinaEstados.msim.vcd
$comment
	File created using the following command:
		vcd file MaquinaEstados.msim.vcd -direction
$end
$date
	Wed Jun 25 15:35:39 2025
$end
$version
	ModelSim Version 10.1d
$end
$timescale
	1ps
$end
$scope module MaquinaEstados_vlg_vec_tst $end
$var reg 1 ! clk $end
$var wire 1 " Q0 $end
$var wire 1 # Q1 $end
$var wire 1 $ Q2 $end
$var wire 1 % S1A $end
$var wire 1 & S1R $end
$var wire 1 ' S1V $end
$var wire 1 ( S2A $end
$var wire 1 ) S2R $end
$var wire 1 * S2V $end
$var wire 1 + S3A $end
$var wire 1 , S3R $end
$var wire 1 - S3V $end
$var wire 1 . sampler $end
$scope module i1 $end
$var wire 1 / gnd $end
$var wire 1 0 vcc $end
$var wire 1 1 unknown $end
$var tri1 1 2 devclrn $end
$var tri1 1 3 devpor $end
$var tri1 1 4 devoe $end
$var wire 1 5 Q2~output_o $end
$var wire 1 6 Q1~output_o $end
$var wire 1 7 Q0~output_o $end
$var wire 1 8 S1V~output_o $end
$var wire 1 9 S1R~output_o $end
$var wire 1 : S1A~output_o $end
$var wire 1 ; S2V~output_o $end
$var wire 1 < S2R~output_o $end
$var wire 1 = S2A~output_o $end
$var wire 1 > S3V~output_o $end
$var wire 1 ? S3R~output_o $end
$var wire 1 @ S3A~output_o $end
$var wire 1 A clk~input_o $end
$var wire 1 B clk~inputclkctrl_outclk $end
$var wire 1 C inst18|FF0~0_combout $end
$var wire 1 D inst18|inst1~combout $end
$var wire 1 E inst18|FF0~q $end
$var wire 1 F inst18|FF1~0_combout $end
$var wire 1 G inst18|FF1~q $end
$var wire 1 H inst18|FF2~0_combout $end
$var wire 1 I inst18|FF2~q $end
$var wire 1 J inst18|FF3~0_combout $end
$var wire 1 K inst18|FF3~q $end
$var wire 1 L inst18|inst8~0_combout $end
$var wire 1 M inst18|FF4~0_combout $end
$var wire 1 N inst18|FF4~q $end
$var wire 1 O inst18|FF5~0_combout $end
$var wire 1 P inst18|FF5~q $end
$var wire 1 Q inst6|inst12~0_combout $end
$var wire 1 R inst6|inst12~1_combout $end
$var wire 1 S FF0~q $end
$var wire 1 T inst~0_combout $end
$var wire 1 U inst~1_combout $end
$var wire 1 V FF1~q $end
$var wire 1 W inst12~0_combout $end
$var wire 1 X FF2~q $end
$var wire 1 Y inst2~combout $end
$var wire 1 Z inst20~combout $end
$var wire 1 [ inst23~0_combout $end
$var wire 1 \ inst23~1_combout $end
$var wire 1 ] inst27~combout $end
$var wire 1 ^ inst31~0_combout $end
$var wire 1 _ inst31~combout $end
$upscope $end
$upscope $end
$enddefinitions $end
#0
$dumpvars
0!
0"
0#
0$
1%
1&
0'
1(
1)
0*
1+
0,
1-
x.
0/
10
x1
12
13
14
05
06
07
08
19
1:
0;
1<
1=
1>
0?
1@
0A
0B
1C
0D
0E
0F
0G
0H
0I
0J
0K
0L
0M
0N
0O
0P
1Q
0R
0S
0T
0U
0V
1W
0X
0Y
0Z
0[
0\
1]
0^
0_
$end
#500
1!
1A
1B
0.
1E
1X
1F
0C
15
09
1$
0&
1Y
18
1'
#1000
0!
0A
0B
1.
#1500
1!
1A
1B
0.
1G
0E
1C
#2000
0!
0A
0B
1.
#2500
1!
1A
1B
0.
1E
1H
0F
0C
#3000
0!
0A
0B
1.
#3500
1!
1A
1B
0.
1I
0G
0E
1C
#4000
0!
0A
0B
1.
#4500
1!
1A
1B
0.
1E
1F
0C
#5000
0!
0A
0B
1.
#5500
1!
1A
1B
0.
1G
0E
1C
#6000
0!
0A
0B
1.
#6500
1!
1A
1B
0.
1E
1L
1J
0H
0F
0C
#7000
0!
0A
0B
1.
#7500
1!
1A
1B
0.
1K
0I
0G
0E
1M
0L
1C
0M
#8000
0!
0A
0B
1.
#8500
1!
1A
1B
0.
1E
1F
0C
#9000
0!
0A
0B
1.
#9500
1!
1A
1B
0.
1G
0E
1C
#10000
0!
0A
0B
1.
#10500
1!
1A
1B
0.
1E
1H
0F
0C
#11000
0!
0A
0B
1.
#11500
1!
1A
1B
0.
1I
0G
0E
1C
#12000
0!
0A
0B
1.
#12500
1!
1A
1B
0.
1E
1F
0C
#13000
0!
0A
0B
1.
#13500
1!
1A
1B
0.
1G
0E
1C
#14000
0!
0A
0B
1.
#14500
1!
1A
1B
0.
1E
1L
0J
0H
0F
0C
1M
#15000
0!
0A
0B
1.
#15500
1!
1A
1B
0.
1N
0K
0I
0G
0E
0L
1C
#16000
0!
0A
0B
1.
#16500
1!
1A
1B
0.
1E
1F
0C
#17000
0!
0A
0B
1.
#17500
1!
1A
1B
0.
1G
0E
1C
#18000
0!
0A
0B
1.
#18500
1!
1A
1B
0.
1E
1H
0F
0C
#19000
0!
0A
0B
1.
#19500
1!
1A
1B
0.
1I
0G
0E
1C
#20000
0!
0A
0B
1.
#20500
1!
1A
1B
0.
1E
1F
0C
#21000
0!
0A
0B
1.
#21500
1!
1A
1B
0.
1G
0E
1C
#22000
0!
0A
0B
1.
#22500
1!
1A
1B
0.
1E
1L
1J
0H
0F
0C
#23000
0!
0A
0B
1.
#23500
1!
1A
1B
0.
1K
0I
0G
0E
1O
0M
0L
1C
0O
1M
#24000
0!
0A
0B
1.
#24500
1!
1A
1B
0.
1E
1F
0C
#25000
0!
0A
0B
1.
#25500
1!
1A
1B
0.
1G
0E
1C
#26000
0!
0A
0B
1.
#26500
1!
1A
1B
0.
1E
1H
0F
0C
#27000
0!
0A
0B
1.
#27500
1!
1A
1B
0.
1I
0G
0E
1C
#28000
0!
0A
0B
1.
#28500
1!
1A
1B
0.
1E
1F
0C
#29000
0!
0A
0B
1.
#29500
1!
1A
1B
0.
1G
0E
0Q
1C
1R
#30000
0!
0A
0B
1.
#30500
1!
1A
1B
0.
1E
1S
1L
0J
0H
0F
0C
1\
1T
17
1"
1[
1O
0M
0=
1;
0(
1*
#31000
0!
0A
0B
1.
#31500
1!
1A
1B
0.
1P
0N
0K
0I
0G
0E
1Q
0L
1C
#32000
0!
0A
0B
1.
#32500
1!
1A
1B
0.
1E
1F
0C
#33000
0!
0A
0B
1.
#33500
1!
1A
1B
0.
1G
0E
1C
#34000
0!
0A
0B
1.
#34500
1!
1A
1B
0.
1E
1H
0F
1D
0C
0E
0G
0P
0H
0D
1C
1U
0R
0O
#35000
0!
0A
0B
1.
#35500
1!
1A
1B
0.
1E
1V
0S
1F
0C
0\
16
07
0<
1#
0"
0)
1^
0]
1=
1?
0>
1(
1,
0-
#36000
0!
0A
0B
1.
#36500
1!
1A
1B
0.
1G
0E
1C
#37000
0!
0A
0B
1.
#37500
1!
1A
1B
0.
1E
1H
0F
0C
#38000
0!
0A
0B
1.
#38500
1!
1A
1B
0.
1I
0G
0E
1C
#39000
0!
0A
0B
1.
#39500
1!
1A
1B
0.
1E
1F
0C
#40000
0!
0A
0B
1.
#40500
1!
1A
1B
0.
1G
0E
1C
#41000
0!
0A
0B
1.
#41500
1!
1A
1B
0.
1E
1L
1J
0H
0F
0C
#42000
0!
0A
0B
1.
#42500
1!
1A
1B
0.
1K
0I
0G
0E
1M
0L
1C
0M
#43000
0!
0A
0B
1.
#43500
1!
1A
1B
0.
1E
1F
0C
#44000
0!
0A
0B
1.
#44500
1!
1A
1B
0.
1G
0E
1C
#45000
0!
0A
0B
1.
#45500
1!
1A
1B
0.
1E
1H
0F
0C
#46000
0!
0A
0B
1.
#46500
1!
1A
1B
0.
1I
0G
0E
1C
#47000
0!
0A
0B
1.
#47500
1!
1A
1B
0.
1E
1F
0C
#48000
0!
0A
0B
1.
#48500
1!
1A
1B
0.
1G
0E
1C
#49000
0!
0A
0B
1.
#49500
1!
1A
1B
0.
1E
1L
0J
0H
0F
0C
1M
#50000
0!
0A
0B
1.
#50500
1!
1A
1B
0.
1N
0K
0I
0G
0E
0L
1C
#51000
0!
0A
0B
1.
#51500
1!
1A
1B
0.
1E
1F
0C
#52000
0!
0A
0B
1.
#52500
1!
1A
1B
0.
1G
0E
1C
#53000
0!
0A
0B
1.
#53500
1!
1A
1B
0.
1E
1H
0F
0C
#54000
0!
0A
0B
1.
#54500
1!
1A
1B
0.
1I
0G
0E
1C
#55000
0!
0A
0B
1.
#55500
1!
1A
1B
0.
1E
1F
0C
#56000
0!
0A
0B
1.
#56500
1!
1A
1B
0.
1G
0E
1C
#57000
0!
0A
0B
1.
#57500
1!
1A
1B
0.
1E
1L
1J
0H
0F
0C
#58000
0!
0A
0B
1.
#58500
1!
1A
1B
0.
1K
0I
0G
0E
1O
0M
0L
1C
0O
1M
#59000
0!
0A
0B
1.
#59500
1!
1A
1B
0.
1E
1F
0C
#60000
0!
0A
0B
1.
#60500
1!
1A
1B
0.
1G
0E
1C
#61000
0!
0A
0B
1.
#61500
1!
1A
1B
0.
1E
1H
0F
0C
#62000
0!
0A
0B
1.
#62500
1!
1A
1B
0.
1I
0G
0E
1C
#63000
0!
0A
0B
1.
#63500
1!
1A
1B
0.
1E
1F
0C
#64000
0!
0A
0B
1.
#64500
1!
1A
1B
0.
1G
0E
0Q
1C
1R
#65000
0!
0A
0B
1.
#65500
1!
1A
1B
0.
1E
1S
1L
0J
0H
0F
0C
1_
17
1"
1]
1O
0M
0@
1>
0+
1-
#66000
0!
0A
0B
1.
#66500
1!
1A
1B
0.
1P
0N
0K
0I
0G
0E
1Q
0L
1C
#67000
0!
0A
0B
1.
#67500
1!
1A
1B
0.
1E
1F
0C
#68000
0!
0A
0B
1.
#68500
1!
1A
1B
0.
1G
0E
1C
#69000
0!
0A
0B
1.
#69500
1!
1A
1B
0.
1E
1H
0F
1D
0C
0E
0G
0P
0H
0D
1C
0R
0O
0W
#70000
0!
0A
0B
1.
#70500
1!
1A
1B
0.
1E
0X
0S
1F
0C
0_
05
07
19
0$
0"
1&
0^
0Y
1@
0?
08
1+
0,
0'
#71000
0!
0A
0B
1.
#71500
1!
1A
1B
0.
1G
0E
1C
#72000
0!
0A
0B
1.
#72500
1!
1A
1B
0.
1E
1H
0F
0C
#73000
0!
0A
0B
1.
#73500
1!
1A
1B
0.
1I
0G
0E
1C
#74000
0!
0A
0B
1.
#74500
1!
1A
1B
0.
1E
1F
0C
#75000
0!
0A
0B
1.
#75500
1!
1A
1B
0.
1G
0E
1C
#76000
0!
0A
0B
1.
#76500
1!
1A
1B
0.
1E
1L
1J
0H
0F
0C
#77000
0!
0A
0B
1.
#77500
1!
1A
1B
0.
1K
0I
0G
0E
1M
0L
1C
0M
#78000
0!
0A
0B
1.
#78500
1!
1A
1B
0.
1E
1F
0C
#79000
0!
0A
0B
1.
#79500
1!
1A
1B
0.
1G
0E
1C
#80000
0!
0A
0B
1.
#80500
1!
1A
1B
0.
1E
1H
0F
0C
#81000
0!
0A
0B
1.
#81500
1!
1A
1B
0.
1I
0G
0E
1C
#82000
0!
0A
0B
1.
#82500
1!
1A
1B
0.
1E
1F
0C
#83000
0!
0A
0B
1.
#83500
1!
1A
1B
0.
1G
0E
1C
#84000
0!
0A
0B
1.
#84500
1!
1A
1B
0.
1E
1L
0J
0H
0F
0C
1M
#85000
0!
0A
0B
1.
#85500
1!
1A
1B
0.
1N
0K
0I
0G
0E
0L
1C
#86000
0!
0A
0B
1.
#86500
1!
1A
1B
0.
1E
1F
0C
#87000
0!
0A
0B
1.
#87500
1!
1A
1B
0.
1G
0E
1C
#88000
0!
0A
0B
1.
#88500
1!
1A
1B
0.
1E
1H
0F
0C
#89000
0!
0A
0B
1.
#89500
1!
1A
1B
0.
1I
0G
0E
1C
#90000
0!
0A
0B
1.
#90500
1!
1A
1B
0.
1E
1F
0C
#91000
0!
0A
0B
1.
#91500
1!
1A
1B
0.
1G
0E
1C
#92000
0!
0A
0B
1.
#92500
1!
1A
1B
0.
1E
1L
1J
0H
0F
0C
#93000
0!
0A
0B
1.
#93500
1!
1A
1B
0.
1K
0I
0G
0E
1O
0M
0L
1C
0O
1M
#94000
0!
0A
0B
1.
#94500
1!
1A
1B
0.
1E
1F
0C
#95000
0!
0A
0B
1.
#95500
1!
1A
1B
0.
1G
0E
1C
#96000
0!
0A
0B
1.
#96500
1!
1A
1B
0.
1E
1H
0F
0C
#97000
0!
0A
0B
1.
#97500
1!
1A
1B
0.
1I
0G
0E
1C
#98000
0!
0A
0B
1.
#98500
1!
1A
1B
0.
1E
1F
0C
#99000
0!
0A
0B
1.
#99500
1!
1A
1B
0.
1G
0E
0Q
1C
1R
#100000
0!
0A
0B
1.
#100500
1!
1A
1B
0.
1E
1S
1L
0J
0H
0F
0C
1Z
0T
17
1"
1Y
1O
0M
0:
18
0%
1'
#101000
0!
0A
0B
1.
#101500
1!
1A
1B
0.
1P
0N
0K
0I
0G
0E
1Q
0L
1C
#102000
0!
0A
0B
1.
#102500
1!
1A
1B
0.
1E
1F
0C
#103000
0!
0A
0B
1.
#103500
1!
1A
1B
0.
1G
0E
1C
#104000
0!
0A
0B
1.
#104500
1!
1A
1B
0.
1E
1H
0F
1D
0C
0E
0G
0P
0H
0D
1C
0U
0R
0O
1W
#105000
0!
0A
0B
1.
#105500
1!
1A
1B
0.
1E
1X
0V
0S
1F
0C
0Z
15
06
07
09
1<
1$
0#
0"
0&
1)
0[
1:
0;
1%
0*
#106000
0!
0A
0B
1.
#106500
1!
1A
1B
0.
1G
0E
1C
#107000
0!
0A
0B
1.
#107500
1!
1A
1B
0.
1E
1H
0F
0C
#108000
0!
0A
0B
1.
#108500
1!
1A
1B
0.
1I
0G
0E
1C
#109000
0!
0A
0B
1.
#109500
1!
1A
1B
0.
1E
1F
0C
#110000
0!
0A
0B
1.
#110500
1!
1A
1B
0.
1G
0E
1C
#111000
0!
0A
0B
1.
#111500
1!
1A
1B
0.
1E
1L
1J
0H
0F
0C
#112000
0!
0A
0B
1.
#112500
1!
1A
1B
0.
1K
0I
0G
0E
1M
0L
1C
0M
#113000
0!
0A
0B
1.
#113500
1!
1A
1B
0.
1E
1F
0C
#114000
0!
0A
0B
1.
#114500
1!
1A
1B
0.
1G
0E
1C
#115000
0!
0A
0B
1.
#115500
1!
1A
1B
0.
1E
1H
0F
0C
#116000
0!
0A
0B
1.
#116500
1!
1A
1B
0.
1I
0G
0E
1C
#117000
0!
0A
0B
1.
#117500
1!
1A
1B
0.
1E
1F
0C
#118000
0!
0A
0B
1.
#118500
1!
1A
1B
0.
1G
0E
1C
#119000
0!
0A
0B
1.
#119500
1!
1A
1B
0.
1E
1L
0J
0H
0F
0C
1M
#120000
0!
0A
0B
1.
#120500
1!
1A
1B
0.
1N
0K
0I
0G
0E
0L
1C
#121000
0!
0A
0B
1.
#121500
1!
1A
1B
0.
1E
1F
0C
#122000
0!
0A
0B
1.
#122500
1!
1A
1B
0.
1G
0E
1C
#123000
0!
0A
0B
1.
#123500
1!
1A
1B
0.
1E
1H
0F
0C
#124000
0!
0A
0B
1.
#124500
1!
1A
1B
0.
1I
0G
0E
1C
#125000
0!
0A
0B
1.
#125500
1!
1A
1B
0.
1E
1F
0C
#126000
0!
0A
0B
1.
#126500
1!
1A
1B
0.
1G
0E
1C
#127000
0!
0A
0B
1.
#127500
1!
1A
1B
0.
1E
1L
1J
0H
0F
0C
#128000
0!
0A
0B
1.
#128500
1!
1A
1B
0.
1K
0I
0G
0E
1O
0M
0L
1C
0O
1M
#129000
0!
0A
0B
1.
#129500
1!
1A
1B
0.
1E
1F
0C
#130000
0!
0A
0B
1.
#130500
1!
1A
1B
0.
1G
0E
1C
#131000
0!
0A
0B
1.
#131500
1!
1A
1B
0.
1E
1H
0F
0C
#132000
0!
0A
0B
1.
#132500
1!
1A
1B
0.
1I
0G
0E
1C
#133000
0!
0A
0B
1.
#133500
1!
1A
1B
0.
1E
1F
0C
#134000
0!
0A
0B
1.
#134500
1!
1A
1B
0.
1G
0E
0Q
1C
1R
#135000
0!
0A
0B
1.
#135500
1!
1A
1B
0.
1E
1S
1L
0J
0H
0F
0C
1\
1T
17
1"
1[
1O
0M
0=
1;
0(
1*
#136000
0!
0A
0B
1.
#136500
1!
1A
1B
0.
1P
0N
0K
0I
0G
0E
1Q
0L
1C
#137000
0!
0A
0B
1.
#137500
1!
1A
1B
0.
1E
1F
0C
#138000
0!
0A
0B
1.
#138500
1!
1A
1B
0.
1G
0E
1C
#139000
0!
0A
0B
1.
#139500
1!
1A
1B
0.
1E
1H
0F
1D
0C
0E
0G
0P
0H
0D
1C
1U
0R
0O
#140000
0!
0A
0B
1.
#140500
1!
1A
1B
0.
1E
1V
0S
1F
0C
0\
16
07
0<
1#
0"
0)
1^
0]
1=
1?
0>
1(
1,
0-
#141000
0!
0A
0B
1.
#141500
1!
1A
1B
0.
1G
0E
1C
#142000
0!
0A
0B
1.
#142500
1!
1A
1B
0.
1E
1H
0F
0C
#143000
0!
0A
0B
1.
#143500
1!
1A
1B
0.
1I
0G
0E
1C
#144000
0!
0A
0B
1.
#144500
1!
1A
1B
0.
1E
1F
0C
#145000
0!
0A
0B
1.
#145500
1!
1A
1B
0.
1G
0E
1C
#146000
0!
0A
0B
1.
#146500
1!
1A
1B
0.
1E
1L
1J
0H
0F
0C
#147000
0!
0A
0B
1.
#147500
1!
1A
1B
0.
1K
0I
0G
0E
1M
0L
1C
0M
#148000
0!
0A
0B
1.
#148500
1!
1A
1B
0.
1E
1F
0C
#149000
0!
0A
0B
1.
#149500
1!
1A
1B
0.
1G
0E
1C
#150000
0!
0A
0B
1.
#150500
1!
1A
1B
0.
1E
1H
0F
0C
#151000
0!
0A
0B
1.
#151500
1!
1A
1B
0.
1I
0G
0E
1C
#152000
0!
0A
0B
1.
#152500
1!
1A
1B
0.
1E
1F
0C
#153000
0!
0A
0B
1.
#153500
1!
1A
1B
0.
1G
0E
1C
#154000
0!
0A
0B
1.
#154500
1!
1A
1B
0.
1E
1L
0J
0H
0F
0C
1M
#155000
0!
0A
0B
1.
#155500
1!
1A
1B
0.
1N
0K
0I
0G
0E
0L
1C
#156000
0!
0A
0B
1.
#156500
1!
1A
1B
0.
1E
1F
0C
#157000
0!
0A
0B
1.
#157500
1!
1A
1B
0.
1G
0E
1C
#158000
0!
0A
0B
1.
#158500
1!
1A
1B
0.
1E
1H
0F
0C
#159000
0!
0A
0B
1.
#159500
1!
1A
1B
0.
1I
0G
0E
1C
#160000
0!
0A
0B
1.
#160500
1!
1A
1B
0.
1E
1F
0C
#161000
0!
0A
0B
1.
#161500
1!
1A
1B
0.
1G
0E
1C
#162000
0!
0A
0B
1.
#162500
1!
1A
1B
0.
1E
1L
1J
0H
0F
0C
#163000
0!
0A
0B
1.
#163500
1!
1A
1B
0.
1K
0I
0G
0E
1O
0M
0L
1C
0O
1M
#164000
0!
0A
0B
1.
#164500
1!
1A
1B
0.
1E
1F
0C
#165000
0!
0A
0B
1.
#165500
1!
1A
1B
0.
1G
0E
1C
#166000
0!
0A
0B
1.
#166500
1!
1A
1B
0.
1E
1H
0F
0C
#167000
0!
0A
0B
1.
#167500
1!
1A
1B
0.
1I
0G
0E
1C
#168000
0!
0A
0B
1.
#168500
1!
1A
1B
0.
1E
1F
0C
#169000
0!
0A
0B
1.
#169500
1!
1A
1B
0.
1G
0E
0Q
1C
1R
#170000
0!
0A
0B
1.
#170500
1!
1A
1B
0.
1E
1S
1L
0J
0H
0F
0C
1_
17
1"
1]
1O
0M
0@
1>
0+
1-
#171000
0!
0A
0B
1.
#171500
1!
1A
1B
0.
1P
0N
0K
0I
0G
0E
1Q
0L
1C
#172000
0!
0A
0B
1.
#172500
1!
1A
1B
0.
1E
1F
0C
#173000
0!
0A
0B
1.
#173500
1!
1A
1B
0.
1G
0E
1C
#174000
0!
0A
0B
1.
#174500
1!
1A
1B
0.
1E
1H
0F
1D
0C
0E
0G
0P
0H
0D
1C
0R
0O
0W
#175000
0!
0A
0B
1.
#175500
1!
1A
1B
0.
1E
0X
0S
1F
0C
0_
05
07
19
0$
0"
1&
0^
0Y
1@
0?
08
1+
0,
0'
#176000
0!
0A
0B
1.
#176500
1!
1A
1B
0.
1G
0E
1C
#177000
0!
0A
0B
1.
#177500
1!
1A
1B
0.
1E
1H
0F
0C
#178000
0!
0A
0B
1.
#178500
1!
1A
1B
0.
1I
0G
0E
1C
#179000
0!
0A
0B
1.
#179500
1!
1A
1B
0.
1E
1F
0C
#180000
0!
0A
0B
1.
#180500
1!
1A
1B
0.
1G
0E
1C
#181000
0!
0A
0B
1.
#181500
1!
1A
1B
0.
1E
1L
1J
0H
0F
0C
#182000
0!
0A
0B
1.
#182500
1!
1A
1B
0.
1K
0I
0G
0E
1M
0L
1C
0M
#183000
0!
0A
0B
1.
#183500
1!
1A
1B
0.
1E
1F
0C
#184000
0!
0A
0B
1.
#184500
1!
1A
1B
0.
1G
0E
1C
#185000
0!
0A
0B
1.
#185500
1!
1A
1B
0.
1E
1H
0F
0C
#186000
0!
0A
0B
1.
#186500
1!
1A
1B
0.
1I
0G
0E
1C
#187000
0!
0A
0B
1.
#187500
1!
1A
1B
0.
1E
1F
0C
#188000
0!
0A
0B
1.
#188500
1!
1A
1B
0.
1G
0E
1C
#189000
0!
0A
0B
1.
#189500
1!
1A
1B
0.
1E
1L
0J
0H
0F
0C
1M
#190000
0!
0A
0B
1.
#190500
1!
1A
1B
0.
1N
0K
0I
0G
0E
0L
1C
#191000
0!
0A
0B
1.
#191500
1!
1A
1B
0.
1E
1F
0C
#192000
0!
0A
0B
1.
#192500
1!
1A
1B
0.
1G
0E
1C
#193000
0!
0A
0B
1.
#193500
1!
1A
1B
0.
1E
1H
0F
0C
#194000
0!
0A
0B
1.
#194500
1!
1A
1B
0.
1I
0G
0E
1C
#195000
0!
0A
0B
1.
#195500
1!
1A
1B
0.
1E
1F
0C
#196000
0!
0A
0B
1.
#196500
1!
1A
1B
0.
1G
0E
1C
#197000
0!
0A
0B
1.
#197500
1!
1A
1B
0.
1E
1L
1J
0H
0F
0C
#198000
0!
0A
0B
1.
#198500
1!
1A
1B
0.
1K
0I
0G
0E
1O
0M
0L
1C
0O
1M
#199000
0!
0A
0B
1.
#199500
1!
1A
1B
0.
1E
1F
0C
#200000
0!
0A
0B
1.
#200500
1!
1A
1B
0.
1G
0E
1C
#201000
0!
0A
0B
1.
#201500
1!
1A
1B
0.
1E
1H
0F
0C
#202000
0!
0A
0B
1.
#202500
1!
1A
1B
0.
1I
0G
0E
1C
#203000
0!
0A
0B
1.
#203500
1!
1A
1B
0.
1E
1F
0C
#204000
0!
0A
0B
1.
#204500
1!
1A
1B
0.
1G
0E
0Q
1C
1R
#205000
0!
0A
0B
1.
#205500
1!
1A
1B
0.
1E
1S
1L
0J
0H
0F
0C
1Z
0T
17
1"
1Y
1O
0M
0:
18
0%
1'
#206000
0!
0A
0B
1.
#206500
1!
1A
1B
0.
1P
0N
0K
0I
0G
0E
1Q
0L
1C
#207000
0!
0A
0B
1.
#207500
1!
1A
1B
0.
1E
1F
0C
#208000
0!
0A
0B
1.
#208500
1!
1A
1B
0.
1G
0E
1C
#209000
0!
0A
0B
1.
#209500
1!
1A
1B
0.
1E
1H
0F
1D
0C
0E
0G
0P
0H
0D
1C
0U
0R
0O
1W
#210000
0!
0A
0B
1.
#210500
1!
1A
1B
0.
1E
1X
0V
0S
1F
0C
0Z
15
06
07
09
1<
1$
0#
0"
0&
1)
0[
1:
0;
1%
0*
#211000
0!
0A
0B
1.
#211500
1!
1A
1B
0.
1G
0E
1C
#212000
0!
0A
0B
1.
#212500
1!
1A
1B
0.
1E
1H
0F
0C
#213000
0!
0A
0B
1.
#213500
1!
1A
1B
0.
1I
0G
0E
1C
#214000
0!
0A
0B
1.
#214500
1!
1A
1B
0.
1E
1F
0C
#215000
0!
0A
0B
1.
#215500
1!
1A
1B
0.
1G
0E
1C
#216000
0!
0A
0B
1.
#216500
1!
1A
1B
0.
1E
1L
1J
0H
0F
0C
#217000
0!
0A
0B
1.
#217500
1!
1A
1B
0.
1K
0I
0G
0E
1M
0L
1C
0M
#218000
0!
0A
0B
1.
#218500
1!
1A
1B
0.
1E
1F
0C
#219000
0!
0A
0B
1.
#219500
1!
1A
1B
0.
1G
0E
1C
#220000
0!
0A
0B
1.
#220500
1!
1A
1B
0.
1E
1H
0F
0C
#221000
0!
0A
0B
1.
#221500
1!
1A
1B
0.
1I
0G
0E
1C
#222000
0!
0A
0B
1.
#222500
1!
1A
1B
0.
1E
1F
0C
#223000
0!
0A
0B
1.
#223500
1!
1A
1B
0.
1G
0E
1C
#224000
0!
0A
0B
1.
#224500
1!
1A
1B
0.
1E
1L
0J
0H
0F
0C
1M
#225000
0!
0A
0B
1.
#225500
1!
1A
1B
0.
1N
0K
0I
0G
0E
0L
1C
#226000
0!
0A
0B
1.
#226500
1!
1A
1B
0.
1E
1F
0C
#227000
0!
0A
0B
1.
#227500
1!
1A
1B
0.
1G
0E
1C
#228000
0!
0A
0B
1.
#228500
1!
1A
1B
0.
1E
1H
0F
0C
#229000
0!
0A
0B
1.
#229500
1!
1A
1B
0.
1I
0G
0E
1C
#230000
0!
0A
0B
1.
#230500
1!
1A
1B
0.
1E
1F
0C
#231000
0!
0A
0B
1.
#231500
1!
1A
1B
0.
1G
0E
1C
#232000
0!
0A
0B
1.
#232500
1!
1A
1B
0.
1E
1L
1J
0H
0F
0C
#233000
0!
0A
0B
1.
#233500
1!
1A
1B
0.
1K
0I
0G
0E
1O
0M
0L
1C
0O
1M
#234000
0!
0A
0B
1.
#234500
1!
1A
1B
0.
1E
1F
0C
#235000
0!
0A
0B
1.
#235500
1!
1A
1B
0.
1G
0E
1C
#236000
0!
0A
0B
1.
#236500
1!
1A
1B
0.
1E
1H
0F
0C
#237000
0!
0A
0B
1.
#237500
1!
1A
1B
0.
1I
0G
0E
1C
#238000
0!
0A
0B
1.
#238500
1!
1A
1B
0.
1E
1F
0C
#239000
0!
0A
0B
1.
#239500
1!
1A
1B
0.
1G
0E
0Q
1C
1R
#240000
0!
0A
0B
1.
#240500
1!
1A
1B
0.
1E
1S
1L
0J
0H
0F
0C
1\
1T
17
1"
1[
1O
0M
0=
1;
0(
1*
#241000
0!
0A
0B
1.
#241500
1!
1A
1B
0.
1P
0N
0K
0I
0G
0E
1Q
0L
1C
#242000
0!
0A
0B
1.
#242500
1!
1A
1B
0.
1E
1F
0C
#243000
0!
0A
0B
1.
#243500
1!
1A
1B
0.
1G
0E
1C
#244000
0!
0A
0B
1.
#244500
1!
1A
1B
0.
1E
1H
0F
1D
0C
0E
0G
0P
0H
0D
1C
1U
0R
0O
#245000
0!
0A
0B
1.
#245500
1!
1A
1B
0.
1E
1V
0S
1F
0C
0\
16
07
0<
1#
0"
0)
1^
0]
1=
1?
0>
1(
1,
0-
#246000
0!
0A
0B
1.
#246500
1!
1A
1B
0.
1G
0E
1C
#247000
0!
0A
0B
1.
#247500
1!
1A
1B
0.
1E
1H
0F
0C
#248000
0!
0A
0B
1.
#248500
1!
1A
1B
0.
1I
0G
0E
1C
#249000
0!
0A
0B
1.
#249500
1!
1A
1B
0.
1E
1F
0C
#250000
0!
0A
0B
1.
#250500
1!
1A
1B
0.
1G
0E
1C
#251000
0!
0A
0B
1.
#251500
1!
1A
1B
0.
1E
1L
1J
0H
0F
0C
#252000
0!
0A
0B
1.
#252500
1!
1A
1B
0.
1K
0I
0G
0E
1M
0L
1C
0M
#253000
0!
0A
0B
1.
#253500
1!
1A
1B
0.
1E
1F
0C
#254000
0!
0A
0B
1.
#254500
1!
1A
1B
0.
1G
0E
1C
#255000
0!
0A
0B
1.
#255500
1!
1A
1B
0.
1E
1H
0F
0C
#256000
0!
0A
0B
1.
#256500
1!
1A
1B
0.
1I
0G
0E
1C
#257000
0!
0A
0B
1.
#257500
1!
1A
1B
0.
1E
1F
0C
#258000
0!
0A
0B
1.
#258500
1!
1A
1B
0.
1G
0E
1C
#259000
0!
0A
0B
1.
#259500
1!
1A
1B
0.
1E
1L
0J
0H
0F
0C
1M
#260000
0!
0A
0B
1.
#260500
1!
1A
1B
0.
1N
0K
0I
0G
0E
0L
1C
#261000
0!
0A
0B
1.
#261500
1!
1A
1B
0.
1E
1F
0C
#262000
0!
0A
0B
1.
#262500
1!
1A
1B
0.
1G
0E
1C
#263000
0!
0A
0B
1.
#263500
1!
1A
1B
0.
1E
1H
0F
0C
#264000
0!
0A
0B
1.
#264500
1!
1A
1B
0.
1I
0G
0E
1C
#265000
0!
0A
0B
1.
#265500
1!
1A
1B
0.
1E
1F
0C
#266000
0!
0A
0B
1.
#266500
1!
1A
1B
0.
1G
0E
1C
#267000
0!
0A
0B
1.
#267500
1!
1A
1B
0.
1E
1L
1J
0H
0F
0C
#268000
0!
0A
0B
1.
#268500
1!
1A
1B
0.
1K
0I
0G
0E
1O
0M
0L
1C
0O
1M
#269000
0!
0A
0B
1.
#269500
1!
1A
1B
0.
1E
1F
0C
#270000
0!
0A
0B
1.
#270500
1!
1A
1B
0.
1G
0E
1C
#271000
0!
0A
0B
1.
#271500
1!
1A
1B
0.
1E
1H
0F
0C
#272000
0!
0A
0B
1.
#272500
1!
1A
1B
0.
1I
0G
0E
1C
#273000
0!
0A
0B
1.
#273500
1!
1A
1B
0.
1E
1F
0C
#274000
0!
0A
0B
1.
#274500
1!
1A
1B
0.
1G
0E
0Q
1C
1R
#275000
0!
0A
0B
1.
#275500
1!
1A
1B
0.
1E
1S
1L
0J
0H
0F
0C
1_
17
1"
1]
1O
0M
0@
1>
0+
1-
#276000
0!
0A
0B
1.
#276500
1!
1A
1B
0.
1P
0N
0K
0I
0G
0E
1Q
0L
1C
#277000
0!
0A
0B
1.
#277500
1!
1A
1B
0.
1E
1F
0C
#278000
0!
0A
0B
1.
#278500
1!
1A
1B
0.
1G
0E
1C
#279000
0!
0A
0B
1.
